<svg xmlns="http://www.w3.org/2000/svg" width="35" height="26.617" viewBox="0 0 35 26.617">
  <g id="check" transform="translate(0 -51.096)">
    <g id="Group_698" data-name="Group 698" transform="translate(0 51.096)">
      <path id="Path_351" data-name="Path 351" d="M34.607,51.524a1.4,1.4,0,0,0-1.98-.034l-.034.034L9.783,74.334l-7.41-7.41A1.4,1.4,0,0,0,.393,68.9l8.4,8.4a1.4,1.4,0,0,0,1.98,0l23.8-23.8A1.4,1.4,0,0,0,34.607,51.524Z" transform="translate(0 -51.096)" fill="#aaa"/>
    </g>
  </g>
</svg>
