<svg xmlns="http://www.w3.org/2000/svg" width="21.37" height="24.423" viewBox="0 0 21.37 24.423">
  <g id="Group_718" data-name="Group 718" transform="translate(-4.197 -5.247)">
    <path id="Path_85" data-name="Path 85" d="M96.763,104.423a.763.763,0,0,0,.763-.763V99.294a2.3,2.3,0,0,1,1.841-2.245l2.762-.552a4.579,4.579,0,0,0,9.111,0l2.762.552a2.3,2.3,0,0,1,1.841,2.245v4.366a.763.763,0,0,0,1.526,0V99.294a3.826,3.826,0,0,0-3.068-3.742l-3.646-.729h0l-.915-.183v-.9a.762.762,0,0,0-.024-.187,5.232,5.232,0,0,0,2.032-2.739l.011-.034.8-3.674a5.8,5.8,0,0,0-1.186-4.866,6.133,6.133,0,0,0-9.475,0,5.8,5.8,0,0,0-1.185,4.871l.045.207a.036.036,0,0,0,0,.007l.741,3.421.018.069a5.235,5.235,0,0,0,2.131,2.806.768.768,0,0,0-.01.119v.9l-.915.183h0l-3.645.729A3.826,3.826,0,0,0,96,99.294v4.366A.763.763,0,0,0,96.763,104.423ZM103.077,83.2a4.607,4.607,0,0,1,7.1,0,4.317,4.317,0,0,1,.913,2.03A3.371,3.371,0,0,0,108.48,85a4.837,4.837,0,0,1-3.589,0,3.361,3.361,0,0,0-2.738.3A4.312,4.312,0,0,1,103.077,83.2Zm-.1,7.184L102.3,87.26a1.789,1.789,0,0,1,2.125-.809,6.319,6.319,0,0,0,4.52,0,1.8,1.8,0,0,1,2.042.672l-.706,3.261a3.869,3.869,0,0,1-7.3,0Zm2.182,5.506V94.3a5.54,5.54,0,0,0,3.053-.033v1.62l1.522.3a3.053,3.053,0,0,1-6.1,0Z" transform="translate(-91.803 -74.753)" fill="#fff"/>
    <path id="Path_86" data-name="Path 86" d="M136.763,304a.763.763,0,0,0-.763.763v1.526a.763.763,0,0,0,1.526,0v-1.526A.763.763,0,0,0,136.763,304Z" transform="translate(-127.986 -277.383)" fill="#fff"/>
    <path id="Path_87" data-name="Path 87" d="M264.763,304a.763.763,0,0,0-.763.763v1.526a.763.763,0,0,0,1.526,0v-1.526A.763.763,0,0,0,264.763,304Z" transform="translate(-243.775 -277.383)" fill="#fff"/>
  </g>
</svg>
