<svg xmlns="http://www.w3.org/2000/svg" width="11" height="11" viewBox="0 0 11 11">
  <path id="cart" d="M8.63,11a1.118,1.118,0,1,1,1.1-1.117A1.118,1.118,0,0,1,8.63,11ZM3.215,11a1.118,1.118,0,1,1,1.1-1.117A1.118,1.118,0,0,1,3.215,11ZM9.73,8.207H3.3A1.059,1.059,0,0,1,2.115,7.089a1.082,1.082,0,0,1,.137-.53L3.08,5.191,1.1,1.117H0V0H1.787L2.31,1.117h8.14A.535.535,0,0,1,11,1.65a.667.667,0,0,1-.055.279L8.965,5.388A1.077,1.077,0,0,1,8,5.974H3.9l-.55.881A.625.625,0,0,0,3.294,7a.131.131,0,0,0,.137.14H9.726V8.209ZM3.382,2.064a.345.345,0,0,0-.311.493l.981,2.061a.346.346,0,0,0,.311.2H7.879a.346.346,0,0,0,.3-.168L9.4,2.585a.345.345,0,0,0-.3-.521Z" fill="#e30613"/>
</svg>
