<svg xmlns="http://www.w3.org/2000/svg" width="17" height="17" viewBox="0 0 17 17">
  <g id="error-cross" transform="translate(-577 -1268)">
    <circle id="Ellipse_16" data-name="Ellipse 16" cx="8.5" cy="8.5" r="8.5" transform="translate(577 1268)" fill="#e30613"/>
    <path id="Path_144" data-name="Path 144" d="M-14667.455,8582l-5.316,5.317" transform="translate(15255.709 -7308.143)" fill="none" stroke="#fff" stroke-width="2"/>
    <path id="Path_145" data-name="Path 145" d="M5.317,0,0,5.317" transform="translate(588.255 1273.857) rotate(90)" fill="none" stroke="#fff" stroke-width="2"/>
  </g>
</svg>
