<svg xmlns="http://www.w3.org/2000/svg" width="35.635" height="34.244" viewBox="0 0 35.635 34.244">
  <g id="feature4" transform="translate(-16.777 -19.698)">
    <g id="Group_46" data-name="Group 46" transform="translate(26.396 37.651)">
      <path id="Path_156" data-name="Path 156" d="M159.6,244.939v-1.12h3.7v1.12Zm1.146-.651v-3.516h.638l-1.719.977v-1.211l1.654-.937h.82v4.687Z" transform="translate(-159.6 -239.535)" fill="#e30613"/>
      <path id="Path_157" data-name="Path 157" d="M202.208,244.5v-1.029l1.732-1.81a2.281,2.281,0,0,0,.365-.495,1.03,1.03,0,0,0,.117-.456.491.491,0,0,0-.156-.391.68.68,0,0,0-.456-.13,1.82,1.82,0,0,0-.664.13,2.958,2.958,0,0,0-.7.352l-.443-1a2.627,2.627,0,0,1,.833-.417,3.544,3.544,0,0,1,1.042-.156,2.6,2.6,0,0,1,1,.182,1.491,1.491,0,0,1,.664.521,1.36,1.36,0,0,1,.234.794,1.97,1.97,0,0,1-.182.846,3.393,3.393,0,0,1-.625.846l-1.419,1.445-.2-.365h2.591v1.12h-3.737Z" transform="translate(-196.479 -239.1)" fill="#e30613"/>
    </g>
    <line id="Line_12" data-name="Line 12" x1="2.253" y2="2.148" transform="translate(47.047 48.718)" fill="none" stroke="#e30613" stroke-linecap="round" stroke-width="2"/>
    <line id="Line_13" data-name="Line 13" x1="2.266" y2="2.148" transform="translate(43.063 44.422)" fill="none" stroke="#e30613" stroke-linecap="round" stroke-width="2"/>
    <g id="Group_47" data-name="Group 47" transform="translate(41.604 42.755)">
      <path id="Path_158" data-name="Path 158" d="M277.285,281.8c-.013.065,5.521,5.937,5.521,5.937s.885.951,1.172.677l2.148-2.005s.286-.273-.586-1.211l-5.521-5.937-3.529-.964-.091.091Z" transform="translate(-276.4 -278.3)" fill="none" stroke="#e30613" stroke-linecap="round" stroke-width="2"/>
    </g>
    <path id="Path_159" data-name="Path 159" d="M251.772,242.286a1.3,1.3,0,0,0-.7-.43,1.345,1.345,0,0,0,.6-.417,1.253,1.253,0,0,0,.234-.768,1.32,1.32,0,0,0-.234-.781,1.468,1.468,0,0,0-.664-.508,2.6,2.6,0,0,0-1-.182,3.7,3.7,0,0,0-1.055.156,2.568,2.568,0,0,0-.846.417l.443,1a2.588,2.588,0,0,1,.677-.352,2.216,2.216,0,0,1,.677-.13.727.727,0,0,1,.495.156.55.55,0,0,1,.182.43.4.4,0,0,1-.182.378,1.151,1.151,0,0,1-.6.117h-.69v1.081h.833a1.069,1.069,0,0,1,.612.13.5.5,0,0,1,.182.43.531.531,0,0,1-.156.417l.612,1.016h-.013a1.232,1.232,0,0,0,.312-.182,1.286,1.286,0,0,0,.56-1.107A1.32,1.32,0,0,0,251.772,242.286Z" transform="translate(-210.18 -201.536)" fill="#e30613"/>
    <g id="Group_48" data-name="Group 48" transform="translate(17.776 20.698)">
      <path id="Path_160" data-name="Path 160" d="M125.34,130.059V115.814a1.026,1.026,0,0,0-.169-.508l-4.635-6.185a.615.615,0,0,0-.456-.221H98.673a.692.692,0,0,0-.456.221l-4.648,6.185a1.026,1.026,0,0,0-.169.508v19.609a.289.289,0,0,0,.286.286h19.258" transform="translate(-93.4 -108.9)" fill="none" stroke="#e30613" stroke-linecap="round" stroke-width="2"/>
    </g>
    <line id="Line_14" data-name="Line 14" x1="11.967" transform="translate(18.126 27.169)" fill="none" stroke="#e30613" stroke-linecap="round" stroke-width="2"/>
    <line id="Line_20" data-name="Line 20" x1="11.967" transform="translate(37.227 27.169)" fill="none" stroke="#e30613" stroke-linecap="round" stroke-width="2"/>
    <rect id="Rectangle_94" data-name="Rectangle 94" width="6.94" height="9.349" transform="translate(30.276 24.135)" fill="none" stroke="#e30613" stroke-width="2"/>
  </g>
</svg>
