<svg xmlns="http://www.w3.org/2000/svg" width="27.839" height="33.362" viewBox="0 0 27.839 33.362">
  <g id="feature8" transform="translate(-21.149 -14.669)">
    <path id="Path_140" data-name="Path 140" d="M118.3,106.549S105.172,89.114,137.671,84.3c0,0-.294,7.162.446,10.191a13.968,13.968,0,0,1-.364,9.181c-.07.153-.141.317-.211.47" transform="translate(-93.497 -68.465)" fill="none" stroke="#e30613" stroke-linecap="round" stroke-width="2"/>
    <path id="Path_141" data-name="Path 141" d="M159.337,199.8s-7.937,8-7.937,17.635" transform="translate(-125.026 -170.404)" fill="none" stroke="#e30613" stroke-linecap="round" stroke-width="2"/>
    <path id="Path_142" data-name="Path 142" d="M196.758,309.4a8.536,8.536,0,0,1-6.258.176" transform="translate(-159.535 -267.136)" fill="none" stroke="#e30613" stroke-linecap="round" stroke-width="2"/>
    <path id="Path_143" data-name="Path 143" d="M269.382,277.105a2.54,2.54,0,0,0-2.254-1.233,1.961,1.961,0,0,0-1.808,2.736c.6,1.479,3.064,3.875,3.616,4.332.387.317.387.317.646.082a15.352,15.352,0,0,0,3.616-4.1c.434-.857.247-2.97-1.562-2.97a2.355,2.355,0,0,0-2.254,1.151" transform="translate(-225.432 -237.541)" fill="none" stroke="#e30613" stroke-linecap="round" stroke-width="2"/>
  </g>
</svg>
