<svg xmlns="http://www.w3.org/2000/svg" width="14" height="14" viewBox="0 0 14 14">
  <g id="help-icon" transform="translate(-0.003 0)">
    <g id="Group_21" data-name="Group 21" transform="translate(0.003 0)">
      <g id="Group_20" data-name="Group 20" transform="translate(0 0)">
        <path id="Path_31" data-name="Path 31" d="M13.948,12.678l-.961-2.8a6.84,6.84,0,1,0-6.138,3.811h.011a6.867,6.867,0,0,0,3.024-.708l2.8.961a1,1,0,0,0,.327.055,1,1,0,0,0,.94-1.322Zm-.825.442a.16.16,0,0,1-.172.04L9.986,12.141a.415.415,0,0,0-.329.026A6.014,6.014,0,1,1,12.17,9.655a.415.415,0,0,0-.026.329l1.018,2.964A.16.16,0,0,1,13.123,13.12Z" transform="translate(-0.003 0)" fill="#333"/>
      </g>
    </g>
    <g id="Group_23" data-name="Group 23" transform="translate(6.359 9.908)">
      <g id="Group_22" data-name="Group 22">
        <path id="Path_32" data-name="Path 32" d="M233.141,362.748a.422.422,0,1,0,.422.422A.427.427,0,0,0,233.141,362.748Z" transform="translate(-232.719 -362.748)" fill="#333"/>
      </g>
    </g>
    <g id="Group_25" data-name="Group 25" transform="translate(4.684 3.45)">
      <g id="Group_24" data-name="Group 24">
        <path id="Path_33" data-name="Path 33" d="M174.494,127.674a2.1,2.1,0,0,0-2.1,2.1.422.422,0,1,0,.844,0,1.255,1.255,0,1,1,1.255,1.255.422.422,0,0,0-.422.422v1.72a.422.422,0,0,0,.844,0v-1.341a2.1,2.1,0,0,0-.422-4.155Z" transform="translate(-172.395 -127.674)" fill="#333"/>
      </g>
    </g>
  </g>
</svg>
