<svg id="wallet" xmlns="http://www.w3.org/2000/svg" width="33.329" height="33.329" viewBox="0 0 33.329 33.329">
  <g id="Group_38" data-name="Group 38" transform="translate(0 0)">
    <g id="Group_37" data-name="Group 37">
      <path id="Path_47" data-name="Path 47" d="M31.817,16.8V12.12a3.023,3.023,0,0,0-2.789-3.005l-4.35-7.6A3,3,0,0,0,20.565.408L5.652,9.09H3.033A3.033,3.033,0,0,0,0,12.12V30.3a3.033,3.033,0,0,0,3.03,3.03H28.787a3.033,3.033,0,0,0,3.03-3.03V25.615a2.269,2.269,0,0,0,1.515-2.133V18.937A2.269,2.269,0,0,0,31.817,16.8ZM27.268,9.09h-6.6l4.952-2.883Zm-2.4-4.2-7.21,4.2H14.664l9.453-5.5ZM21.327,1.717a1.465,1.465,0,0,1,1.125-.152,1.485,1.485,0,0,1,.91.7l0,0L11.653,9.09H8.663ZM30.3,30.3a1.517,1.517,0,0,1-1.515,1.515H3.033A1.517,1.517,0,0,1,1.518,30.3V12.12a1.517,1.517,0,0,1,1.515-1.515H28.787A1.517,1.517,0,0,1,30.3,12.12v4.545H25.757a4.545,4.545,0,1,0,0,9.09H30.3Zm1.515-6.817a.758.758,0,0,1-.757.757h-5.3a3.03,3.03,0,1,1,0-6.06h5.3a.758.758,0,0,1,.757.757Z" transform="translate(-0.003 0)" fill="#e30613"/>
      <path id="Path_48" data-name="Path 48" d="M342.852,277.341a1.515,1.515,0,1,0,1.515,1.515A1.517,1.517,0,0,0,342.852,277.341Z" transform="translate(-317.098 -257.646)" fill="#e30613"/>
    </g>
  </g>
</svg>
